<svg width="26" height="26" viewBox="0 0 26 26" fill="none" xmlns="http://www.w3.org/2000/svg">
<circle cx="13" cy="13" r="13" fill="#0F4DFF"/>
<path fill-rule="evenodd" clip-rule="evenodd" d="M18.8067 8.75329C19.0667 9.01329 19.0667 9.43329 18.8067 9.69329L17.5867 10.9133L15.0867 8.41329L16.3067 7.19329C16.5667 6.93329 16.9867 6.93329 17.2467 7.19329L18.8067 8.75329ZM7 19V16.5L14.3733 9.12662L16.8733 11.6266L9.5 19H7Z" fill="white" fill-opacity="0.54"/>
</svg>
